{
	"name": "QuestionSave",
	"plural": "question-saves",
	"base": "PersistedModel",
	"idInjection": true,
	"options": {
		"validateUpsert": true
	},
	"scope": {
		"order": "createdAt DESC"
	},
	"properties": {
		"createdAt": {
			"type": "date",
			"defaultFn": "now"
		}
	},
	"validations": [],
	"relations": {
		"creator": {
			"type": "belongsTo",
			"model": "user",
			"foreignKey": "creatorId",
			"required": true
		},
		"question": {
			"type": "belongsTo",
			"model": "Question",
			"foreignKey": "questionId",
			"required": true
		}
	},
	"acls": [],
	"methods": {}
}
