{
	"name": "Ranking",
	"plural": "rankings",
	"base": "PersistedModel",
	"idInjection": true,
	"options": {
		"validateUpsert": true
	},
	"scope": {
		"order": "createdAt DESC"
	},
	"properties": {
		"createdAt": {
			"type": "date",
			"defaultFn": "now"
		},
		"pointsCount": {
			"type": "number"
		},
		"type": {
			"type": "string"
		},
		"day": {
			"type": "number"
		},
		"week": {
			"type": "number"
		},
		"month": {
			"type": "number"
		},
		"top": {
			"type": "number"
		}
	},
	"validations": [],
	"relations": {
		"creator": {
			"type": "belongsTo",
			"model": "user",
			"foreignKey": "creatorId",
			"required": true
		}
	},
	"acls": [],
	"methods": {}
}
