{
	"name": "Relationship",
	"plural": "relationships",
	"base": "PersistedModel",
	"idInjection": true,
	"options": {
		"validateUpsert": true
	},
	"scope": {
		"order": "createdAt DESC"
	},
	"properties": {
		"createdAt": {
			"type": "date",
			"defaultFn": "now"
		},
		"updatedAt": {
			"type": "date",
			"defaultFn": "now"
		},
		"status": {
			"type": "string",
			"default": "pending"
		}
	},
	"validations": [],
	"relations": {
		"creator": {
			"type": "belongsTo",
			"model": "user",
			"foreignKey": "creatorId",
			"required": true
		},
		"friend": {
			"type": "belongsTo",
			"model": "user",
			"foreignKey": "friendId",
			"required": true
		}
	},
	"acls": [],
	"methods": {}
}
